%YAML 1.1
%TAG !u! tag:unity3d.com,2011:
--- !u!114 &11400000
MonoBehaviour:
  m_ObjectHideFlags: 0
  m_CorrespondingSourceObject: {fileID: 0}
  m_PrefabInstance: {fileID: 0}
  m_PrefabAsset: {fileID: 0}
  m_GameObject: {fileID: 0}
  m_Enabled: 1
  m_EditorHideFlags: 0
  m_Script: {fileID: 11500000, guid: 95e66c6366d904e98bc83428217d4fd7, type: 3}
  m_Name: ConstantMover
  m_EditorClassIdentifier: 
  _data:
    _json: '{"graph":{"variables":{"collection":{"$content":[],"$version":"A"},"$version":"A"},"controlInputDefinitions":[],"controlOutputDefinitions":[],"valueInputDefinitions":[],"valueOutputDefinitions":[],"title":null,"summary":null,"pan":{"x":348.3088,"y":353.152},"zoom":0.9,"elements":[{"coroutine":false,"defaultValues":{},"position":{"x":-349.0,"y":-340.0},"guid":"06b55e57-0d23-4c84-9580-a9bfde7d951f","$version":"A","$type":"Unity.VisualScripting.Start","$id":"9"},{"coroutine":false,"defaultValues":{"target":null},"position":{"x":-212.0,"y":208.0},"guid":"c19570bd-8b0a-48f6-a8c1-59df5294ec77","$version":"A","$type":"Unity.VisualScripting.OnCollisionEnter","$id":"11"},{"member":{"name":"x","parameterTypes":null,"targetType":"UnityEngine.Vector3","targetTypeName":"UnityEngine.Vector3","$version":"A"},"defaultValues":{"target":{"x":0.0,"y":0.0,"z":0.0,"$type":"UnityEngine.Vector3"}},"position":{"x":-6.0,"y":-288.0},"guid":"5037d8c8-a26f-40df-acf1-a4e8f6afa0ed","$version":"A","$type":"Unity.VisualScripting.GetMember","$id":"13"},{"member":{"name":"position","parameterTypes":null,"targetType":"UnityEngine.Transform","targetTypeName":"UnityEngine.Transform","$version":"A"},"defaultValues":{"target":null},"position":{"x":-171.0,"y":-233.0},"guid":"13e7ed37-a118-4fb8-a0d9-384baf83bd11","$version":"A","$type":"Unity.VisualScripting.GetMember","$id":"16"},{"chainable":false,"member":{"name":".ctor","parameterTypes":["System.Single","System.Single","System.Single"],"targetType":"UnityEngine.Vector3","targetTypeName":"UnityEngine.Vector3","$version":"A"},"defaultValues":{"%x":{"$content":0.0,"$type":"System.Single"},"%y":{"$content":5.0,"$type":"System.Single"},"%z":{"$content":0.0,"$type":"System.Single"}},"position":{"x":169.0,"y":-369.0},"guid":"3eb37f97-6a4b-4a68-8115-3d532d46720d","$version":"A","$type":"Unity.VisualScripting.InvokeMember","$id":"19"},{"chainable":false,"member":{"name":"AddForce","parameterTypes":["System.Single","System.Single","System.Single","UnityEngine.ForceMode"],"targetType":"UnityEngine.Rigidbody","targetTypeName":"UnityEngine.Rigidbody","$version":"A"},"defaultValues":{"target":null,"%x":{"$content":0.0,"$type":"System.Single"},"%y":{"$content":5.0,"$type":"System.Single"},"%z":{"$content":0.0,"$type":"System.Single"},"%mode":{"$content":"Impulse","$type":"UnityEngine.ForceMode"}},"position":{"x":379.0,"y":223.0},"guid":"ab368b03-aa46-42a9-b88b-a7224afa0c85","$version":"A","$type":"Unity.VisualScripting.InvokeMember","$id":"22"},{"member":{"name":"z","parameterTypes":null,"targetType":"UnityEngine.Vector3","targetTypeName":"UnityEngine.Vector3","$version":"A"},"defaultValues":{"target":{"x":0.0,"y":0.0,"z":0.0,"$type":"UnityEngine.Vector3"}},"position":{"x":9.0,"y":-180.0},"guid":"32f3c6f1-eb5a-497a-b645-6da5a3093131","$version":"A","$type":"Unity.VisualScripting.GetMember","$id":"25"},{"defaultValues":{},"position":{"x":276.0,"y":20.0},"guid":"33a97ab6-b5b8-4201-a691-b35267ad9eca","$version":"A","$type":"Unity.VisualScripting.If","$id":"28"},{"chainable":false,"member":{"name":"position","parameterTypes":null,"targetType":"UnityEngine.Transform","targetTypeName":"UnityEngine.Transform","$version":"A"},"defaultValues":{"target":null,"input":{"x":0.0,"y":5.0,"z":0.0,"$type":"UnityEngine.Vector3"}},"position":{"x":478.0,"y":7.0},"guid":"7a99ecf9-c8a5-4c78-b0cc-e24948e0bbf3","$version":"A","$type":"Unity.VisualScripting.SetMember","$id":"30"},{"chainable":false,"member":{"name":"position","parameterTypes":null,"targetType":"UnityEngine.Transform","targetTypeName":"UnityEngine.Transform","$version":"A"},"defaultValues":{"target":null,"input":{"x":0.0,"y":5.0,"z":0.0,"$type":"UnityEngine.Vector3"}},"position":{"x":379.0,"y":-328.0},"guid":"a8145543-06d7-4536-89b4-751460e2abc5","$version":"A","$type":"Unity.VisualScripting.SetMember","$id":"33"},{"coroutine":false,"defaultValues":{},"position":{"x":-204.0,"y":60.0},"guid":"a53ecdb6-54ba-40bb-9847-d688d7dbf320","$version":"A","$type":"Unity.VisualScripting.Update","$id":"36"},{"chainable":false,"member":{"name":"GetKey","parameterTypes":["UnityEngine.KeyCode"],"targetType":"UnityEngine.Input","targetTypeName":"UnityEngine.Input","$version":"A"},"defaultValues":{"%key":{"$content":"Space","$type":"UnityEngine.KeyCode"}},"position":{"x":41.0,"y":25.0},"guid":"de0b8d34-f3ee-4047-9858-db5cdf60d70f","$version":"A","$type":"Unity.VisualScripting.InvokeMember","$id":"38"},{"specifyFallback":false,"kind":"Object","defaultValues":{"name":{"$content":"BouncePower","$type":"System.String"},"object":null},"position":{"x":100.0,"y":391.0},"guid":"64448589-fadd-4f2d-a882-4b6c0a4738f7","$version":"A","$type":"Unity.VisualScripting.GetVariable","$id":"41"},{"sourceUnit":{"$ref":"11"},"sourceKey":"trigger","destinationUnit":{"$ref":"22"},"destinationKey":"enter","guid":"905a5106-7659-4dda-8023-b066736d21ac","$type":"Unity.VisualScripting.ControlConnection"},{"sourceUnit":{"$ref":"19"},"sourceKey":"exit","destinationUnit":{"$ref":"33"},"destinationKey":"assign","guid":"094f1762-8b3b-4793-ba30-c405eced3cc5","$type":"Unity.VisualScripting.ControlConnection"},{"sourceUnit":{"$ref":"38"},"sourceKey":"exit","destinationUnit":{"$ref":"28"},"destinationKey":"enter","guid":"2828d2af-3195-4e05-89c5-9df59e68427e","$type":"Unity.VisualScripting.ControlConnection"},{"sourceUnit":{"$ref":"36"},"sourceKey":"trigger","destinationUnit":{"$ref":"38"},"destinationKey":"enter","guid":"09573dd3-8666-4329-b1f2-b23ea178a523","$type":"Unity.VisualScripting.ControlConnection"},{"sourceUnit":{"$ref":"28"},"sourceKey":"ifTrue","destinationUnit":{"$ref":"30"},"destinationKey":"assign","guid":"0c3e5b19-bafc-4e49-9601-e9f62a639cb7","$type":"Unity.VisualScripting.ControlConnection"},{"sourceUnit":{"$ref":"9"},"sourceKey":"trigger","destinationUnit":{"$ref":"19"},"destinationKey":"enter","guid":"b3bd1965-9001-4cea-8b07-d73995c2bfd0","$type":"Unity.VisualScripting.ControlConnection"},{"sourceUnit":{"$ref":"16"},"sourceKey":"value","destinationUnit":{"$ref":"25"},"destinationKey":"target","guid":"fe9187a5-4ec7-4368-a31f-fb85688026c6","$type":"Unity.VisualScripting.ValueConnection"},{"sourceUnit":{"$ref":"13"},"sourceKey":"value","destinationUnit":{"$ref":"19"},"destinationKey":"%x","guid":"2e1e69c7-6f3e-4e00-88a0-e0d25699c08c","$type":"Unity.VisualScripting.ValueConnection"},{"sourceUnit":{"$ref":"16"},"sourceKey":"value","destinationUnit":{"$ref":"13"},"destinationKey":"target","guid":"7e3640ee-f655-4bb9-94df-5da002a42e34","$type":"Unity.VisualScripting.ValueConnection"},{"sourceUnit":{"$ref":"19"},"sourceKey":"result","destinationUnit":{"$ref":"33"},"destinationKey":"input","guid":"74b8dd99-0eea-48ac-b266-cae505bf63e3","$type":"Unity.VisualScripting.ValueConnection"},{"sourceUnit":{"$ref":"38"},"sourceKey":"result","destinationUnit":{"$ref":"28"},"destinationKey":"condition","guid":"d1bbcccd-a505-43fa-9628-09a6c27db799","$type":"Unity.VisualScripting.ValueConnection"},{"sourceUnit":{"$ref":"25"},"sourceKey":"value","destinationUnit":{"$ref":"19"},"destinationKey":"%z","guid":"01196d5f-c9a6-4991-b0f0-61528e05ba7b","$type":"Unity.VisualScripting.ValueConnection"},{"sourceUnit":{"$ref":"41"},"sourceKey":"value","destinationUnit":{"$ref":"22"},"destinationKey":"%y","guid":"ebb71bf7-54d7-418f-9e12-2849d76e81f1","$type":"Unity.VisualScripting.ValueConnection"},{"position":{"xMin":-202.0,"yMin":-470.0,"xMax":295.0,"yMax":-72.0},"label":"Get
      original XZ position","comment":null,"color":{"r":0.0,"g":0.0,"b":0.0,"a":1.0},"guid":"8e2c9ef8-b872-4fb5-9c6e-d267d2782823","$version":"A","$type":"Unity.VisualScripting.GraphGroup"}],"$version":"A"}}'
    _objectReferences: []
